{
  "configVersion": 2,
  "packages": [
    {
      "name": "animated_splash_screen",
      "rootUri": "file:///Users/ntambwa_basambombo/.pub-cache/hosted/pub.dartlang.org/animated_splash_screen-1.0.0+1",
      "packageUri": "lib/",
      "languageVersion": "2.7"
    },
    {
      "name": "async",
      "rootUri": "file:///Users/ntambwa_basambombo/.pub-cache/hosted/pub.dartlang.org/async-2.4.2",
      "packageUri": "lib/",
      "languageVersion": "2.2"
    },
    {
      "name": "boolean_selector",
      "rootUri": "file:///Users/ntambwa_basambombo/.pub-cache/hosted/pub.dartlang.org/boolean_selector-2.0.0",
      "packageUri": "lib/",
      "languageVersion": "2.4"
    },
    {
      "name": "built_collection",
      "rootUri": "file:///Users/ntambwa_basambombo/.pub-cache/hosted/pub.dartlang.org/built_collection-4.3.2",
      "packageUri": "lib/",
      "languageVersion": "2.6"
    },
    {
      "name": "built_value",
      "rootUri": "file:///Users/ntambwa_basambombo/.pub-cache/hosted/pub.dartlang.org/built_value-6.7.1",
      "packageUri": "lib/",
      "languageVersion": "2.0"
    },
    {
      "name": "characters",
      "rootUri": "file:///Users/ntambwa_basambombo/.pub-cache/hosted/pub.dartlang.org/characters-1.0.0",
      "packageUri": "lib/",
      "languageVersion": "2.6"
    },
    {
      "name": "charcode",
      "rootUri": "file:///Users/ntambwa_basambombo/.pub-cache/hosted/pub.dartlang.org/charcode-1.1.3",
      "packageUri": "lib/",
      "languageVersion": "2.0"
    },
    {
      "name": "clock",
      "rootUri": "file:///Users/ntambwa_basambombo/.pub-cache/hosted/pub.dartlang.org/clock-1.0.1",
      "packageUri": "lib/",
      "languageVersion": "2.0"
    },
    {
      "name": "cloud_firestore",
      "rootUri": "file:///Users/ntambwa_basambombo/.pub-cache/hosted/pub.dartlang.org/cloud_firestore-0.13.7",
      "packageUri": "lib/",
      "languageVersion": "2.0"
    },
    {
      "name": "cloud_firestore_platform_interface",
      "rootUri": "file:///Users/ntambwa_basambombo/.pub-cache/hosted/pub.dartlang.org/cloud_firestore_platform_interface-1.1.2",
      "packageUri": "lib/",
      "languageVersion": "2.0"
    },
    {
      "name": "cloud_firestore_web",
      "rootUri": "file:///Users/ntambwa_basambombo/.pub-cache/hosted/pub.dartlang.org/cloud_firestore_web-0.1.1+2",
      "packageUri": "lib/",
      "languageVersion": "2.1"
    },
    {
      "name": "collection",
      "rootUri": "file:///Users/ntambwa_basambombo/.pub-cache/hosted/pub.dartlang.org/collection-1.14.13",
      "packageUri": "lib/",
      "languageVersion": "2.3"
    },
    {
      "name": "convert",
      "rootUri": "file:///Users/ntambwa_basambombo/.pub-cache/hosted/pub.dartlang.org/convert-2.1.1",
      "packageUri": "lib/",
      "languageVersion": "1.17"
    },
    {
      "name": "crypto",
      "rootUri": "file:///Users/ntambwa_basambombo/.pub-cache/hosted/pub.dartlang.org/crypto-2.1.4",
      "packageUri": "lib/",
      "languageVersion": "2.1"
    },
    {
      "name": "cupertino_icons",
      "rootUri": "file:///Users/ntambwa_basambombo/.pub-cache/hosted/pub.dartlang.org/cupertino_icons-0.1.3",
      "packageUri": "lib/",
      "languageVersion": "2.0"
    },
    {
      "name": "dots_indicator",
      "rootUri": "file:///Users/ntambwa_basambombo/.pub-cache/hosted/pub.dartlang.org/dots_indicator-1.2.0",
      "packageUri": "lib/",
      "languageVersion": "2.1"
    },
    {
      "name": "fake_async",
      "rootUri": "file:///Users/ntambwa_basambombo/.pub-cache/hosted/pub.dartlang.org/fake_async-1.1.0",
      "packageUri": "lib/",
      "languageVersion": "2.2"
    },
    {
      "name": "file",
      "rootUri": "file:///Users/ntambwa_basambombo/.pub-cache/hosted/pub.dartlang.org/file-5.2.1",
      "packageUri": "lib/",
      "languageVersion": "2.2"
    },
    {
      "name": "firebase",
      "rootUri": "file:///Users/ntambwa_basambombo/.pub-cache/hosted/pub.dartlang.org/firebase-7.3.0",
      "packageUri": "lib/",
      "languageVersion": "2.7"
    },
    {
      "name": "firebase_auth",
      "rootUri": "file:///Users/ntambwa_basambombo/.pub-cache/hosted/pub.dartlang.org/firebase_auth-0.16.1",
      "packageUri": "lib/",
      "languageVersion": "2.0"
    },
    {
      "name": "firebase_auth_platform_interface",
      "rootUri": "file:///Users/ntambwa_basambombo/.pub-cache/hosted/pub.dartlang.org/firebase_auth_platform_interface-1.1.8",
      "packageUri": "lib/",
      "languageVersion": "2.0"
    },
    {
      "name": "firebase_auth_web",
      "rootUri": "file:///Users/ntambwa_basambombo/.pub-cache/hosted/pub.dartlang.org/firebase_auth_web-0.1.3+1",
      "packageUri": "lib/",
      "languageVersion": "2.0"
    },
    {
      "name": "firebase_core",
      "rootUri": "file:///Users/ntambwa_basambombo/.pub-cache/hosted/pub.dartlang.org/firebase_core-0.4.5",
      "packageUri": "lib/",
      "languageVersion": "2.0"
    },
    {
      "name": "firebase_core_platform_interface",
      "rootUri": "file:///Users/ntambwa_basambombo/.pub-cache/hosted/pub.dartlang.org/firebase_core_platform_interface-1.0.4",
      "packageUri": "lib/",
      "languageVersion": "2.0"
    },
    {
      "name": "firebase_core_web",
      "rootUri": "file:///Users/ntambwa_basambombo/.pub-cache/hosted/pub.dartlang.org/firebase_core_web-0.1.1+2",
      "packageUri": "lib/",
      "languageVersion": "2.0"
    },
    {
      "name": "fixnum",
      "rootUri": "file:///Users/ntambwa_basambombo/.pub-cache/hosted/pub.dartlang.org/fixnum-0.10.11",
      "packageUri": "lib/",
      "languageVersion": "2.1"
    },
    {
      "name": "flutter",
      "rootUri": "file:///Users/ntambwa_basambombo/development/flutter/packages/flutter",
      "packageUri": "lib/",
      "languageVersion": "2.9"
    },
    {
      "name": "flutter_test",
      "rootUri": "file:///Users/ntambwa_basambombo/development/flutter/packages/flutter_test",
      "packageUri": "lib/",
      "languageVersion": "2.2"
    },
    {
      "name": "flutter_web_plugins",
      "rootUri": "file:///Users/ntambwa_basambombo/development/flutter/packages/flutter_web_plugins",
      "packageUri": "lib/",
      "languageVersion": "2.0"
    },
    {
      "name": "google_sign_in",
      "rootUri": "file:///Users/ntambwa_basambombo/.pub-cache/hosted/pub.dartlang.org/google_sign_in-4.5.4",
      "packageUri": "lib/",
      "languageVersion": "2.1"
    },
    {
      "name": "google_sign_in_platform_interface",
      "rootUri": "file:///Users/ntambwa_basambombo/.pub-cache/hosted/pub.dartlang.org/google_sign_in_platform_interface-1.1.2",
      "packageUri": "lib/",
      "languageVersion": "2.1"
    },
    {
      "name": "google_sign_in_web",
      "rootUri": "file:///Users/ntambwa_basambombo/.pub-cache/hosted/pub.dartlang.org/google_sign_in_web-0.9.1+1",
      "packageUri": "lib/",
      "languageVersion": "2.6"
    },
    {
      "name": "hive",
      "rootUri": "file:///Users/ntambwa_basambombo/.pub-cache/hosted/pub.dartlang.org/hive-1.4.3",
      "packageUri": "lib/",
      "languageVersion": "2.6"
    },
    {
      "name": "hive_flutter",
      "rootUri": "file:///Users/ntambwa_basambombo/.pub-cache/hosted/pub.dartlang.org/hive_flutter-0.3.1",
      "packageUri": "lib/",
      "languageVersion": "2.6"
    },
    {
      "name": "http",
      "rootUri": "file:///Users/ntambwa_basambombo/.pub-cache/hosted/pub.dartlang.org/http-0.12.2",
      "packageUri": "lib/",
      "languageVersion": "2.4"
    },
    {
      "name": "http_parser",
      "rootUri": "file:///Users/ntambwa_basambombo/.pub-cache/hosted/pub.dartlang.org/http_parser-3.1.4",
      "packageUri": "lib/",
      "languageVersion": "2.3"
    },
    {
      "name": "intl",
      "rootUri": "file:///Users/ntambwa_basambombo/.pub-cache/hosted/pub.dartlang.org/intl-0.16.1",
      "packageUri": "lib/",
      "languageVersion": "2.5"
    },
    {
      "name": "introduction_screen",
      "rootUri": "file:///Users/ntambwa_basambombo/.pub-cache/hosted/pub.dartlang.org/introduction_screen-1.0.9",
      "packageUri": "lib/",
      "languageVersion": "2.2"
    },
    {
      "name": "js",
      "rootUri": "file:///Users/ntambwa_basambombo/.pub-cache/hosted/pub.dartlang.org/js-0.6.2",
      "packageUri": "lib/",
      "languageVersion": "2.0"
    },
    {
      "name": "matcher",
      "rootUri": "file:///Users/ntambwa_basambombo/.pub-cache/hosted/pub.dartlang.org/matcher-0.12.8",
      "packageUri": "lib/",
      "languageVersion": "2.4"
    },
    {
      "name": "meta",
      "rootUri": "file:///Users/ntambwa_basambombo/.pub-cache/hosted/pub.dartlang.org/meta-1.1.8",
      "packageUri": "lib/",
      "languageVersion": "1.12"
    },
    {
      "name": "modal_progress_hud",
      "rootUri": "file:///Users/ntambwa_basambombo/.pub-cache/hosted/pub.dartlang.org/modal_progress_hud-0.1.3",
      "packageUri": "lib/",
      "languageVersion": "1.20"
    },
    {
      "name": "nested",
      "rootUri": "file:///Users/ntambwa_basambombo/.pub-cache/hosted/pub.dartlang.org/nested-0.0.4",
      "packageUri": "lib/",
      "languageVersion": "2.2"
    },
    {
      "name": "page_transition",
      "rootUri": "file:///Users/ntambwa_basambombo/.pub-cache/hosted/pub.dartlang.org/page_transition-1.1.6",
      "packageUri": "lib/",
      "languageVersion": "2.3"
    },
    {
      "name": "path",
      "rootUri": "file:///Users/ntambwa_basambombo/.pub-cache/hosted/pub.dartlang.org/path-1.7.0",
      "packageUri": "lib/",
      "languageVersion": "2.0"
    },
    {
      "name": "path_provider",
      "rootUri": "file:///Users/ntambwa_basambombo/.pub-cache/hosted/pub.dartlang.org/path_provider-1.6.11",
      "packageUri": "lib/",
      "languageVersion": "2.1"
    },
    {
      "name": "path_provider_linux",
      "rootUri": "file:///Users/ntambwa_basambombo/.pub-cache/hosted/pub.dartlang.org/path_provider_linux-0.0.1+2",
      "packageUri": "lib/",
      "languageVersion": "2.1"
    },
    {
      "name": "path_provider_macos",
      "rootUri": "file:///Users/ntambwa_basambombo/.pub-cache/hosted/pub.dartlang.org/path_provider_macos-0.0.4+3",
      "packageUri": "lib/",
      "languageVersion": "2.1"
    },
    {
      "name": "path_provider_platform_interface",
      "rootUri": "file:///Users/ntambwa_basambombo/.pub-cache/hosted/pub.dartlang.org/path_provider_platform_interface-1.0.2",
      "packageUri": "lib/",
      "languageVersion": "2.1"
    },
    {
      "name": "pedantic",
      "rootUri": "file:///Users/ntambwa_basambombo/.pub-cache/hosted/pub.dartlang.org/pedantic-1.9.0",
      "packageUri": "lib/",
      "languageVersion": "2.1"
    },
    {
      "name": "platform",
      "rootUri": "file:///Users/ntambwa_basambombo/.pub-cache/hosted/pub.dartlang.org/platform-2.2.1",
      "packageUri": "lib/",
      "languageVersion": "1.24"
    },
    {
      "name": "plugin_platform_interface",
      "rootUri": "file:///Users/ntambwa_basambombo/.pub-cache/hosted/pub.dartlang.org/plugin_platform_interface-1.0.2",
      "packageUri": "lib/",
      "languageVersion": "2.1"
    },
    {
      "name": "process",
      "rootUri": "file:///Users/ntambwa_basambombo/.pub-cache/hosted/pub.dartlang.org/process-3.0.13",
      "packageUri": "lib/",
      "languageVersion": "2.0"
    },
    {
      "name": "provider",
      "rootUri": "file:///Users/ntambwa_basambombo/.pub-cache/hosted/pub.dartlang.org/provider-4.3.2",
      "packageUri": "lib/",
      "languageVersion": "2.7"
    },
    {
      "name": "quiver",
      "rootUri": "file:///Users/ntambwa_basambombo/.pub-cache/hosted/pub.dartlang.org/quiver-2.1.3",
      "packageUri": "lib/",
      "languageVersion": "2.0"
    },
    {
      "name": "sky_engine",
      "rootUri": "file:///Users/ntambwa_basambombo/development/flutter/bin/cache/pkg/sky_engine",
      "packageUri": "lib/",
      "languageVersion": "1.11"
    },
    {
      "name": "source_span",
      "rootUri": "file:///Users/ntambwa_basambombo/.pub-cache/hosted/pub.dartlang.org/source_span-1.7.0",
      "packageUri": "lib/",
      "languageVersion": "2.6"
    },
    {
      "name": "square_in_app_payments",
      "rootUri": "file:///Users/ntambwa_basambombo/.pub-cache/hosted/pub.dartlang.org/square_in_app_payments-1.5.0",
      "packageUri": "lib/",
      "languageVersion": "2.0"
    },
    {
      "name": "stack_trace",
      "rootUri": "file:///Users/ntambwa_basambombo/.pub-cache/hosted/pub.dartlang.org/stack_trace-1.9.5",
      "packageUri": "lib/",
      "languageVersion": "2.0"
    },
    {
      "name": "stream_channel",
      "rootUri": "file:///Users/ntambwa_basambombo/.pub-cache/hosted/pub.dartlang.org/stream_channel-2.0.0",
      "packageUri": "lib/",
      "languageVersion": "2.0"
    },
    {
      "name": "string_scanner",
      "rootUri": "file:///Users/ntambwa_basambombo/.pub-cache/hosted/pub.dartlang.org/string_scanner-1.0.5",
      "packageUri": "lib/",
      "languageVersion": "2.0"
    },
    {
      "name": "term_glyph",
      "rootUri": "file:///Users/ntambwa_basambombo/.pub-cache/hosted/pub.dartlang.org/term_glyph-1.1.0",
      "packageUri": "lib/",
      "languageVersion": "1.8"
    },
    {
      "name": "test_api",
      "rootUri": "file:///Users/ntambwa_basambombo/.pub-cache/hosted/pub.dartlang.org/test_api-0.2.17",
      "packageUri": "lib/",
      "languageVersion": "2.7"
    },
    {
      "name": "typed_data",
      "rootUri": "file:///Users/ntambwa_basambombo/.pub-cache/hosted/pub.dartlang.org/typed_data-1.2.0",
      "packageUri": "lib/",
      "languageVersion": "2.4"
    },
    {
      "name": "vector_math",
      "rootUri": "file:///Users/ntambwa_basambombo/.pub-cache/hosted/pub.dartlang.org/vector_math-2.0.8",
      "packageUri": "lib/",
      "languageVersion": "2.0"
    },
    {
      "name": "xdg_directories",
      "rootUri": "file:///Users/ntambwa_basambombo/.pub-cache/hosted/pub.dartlang.org/xdg_directories-0.1.0",
      "packageUri": "lib/",
      "languageVersion": "2.3"
    },
    {
      "name": "kaba_pay",
      "rootUri": "../",
      "packageUri": "lib/",
      "languageVersion": "2.7"
    }
  ],
  "generated": "2020-11-21T08:56:23.876451Z",
  "generator": "pub",
  "generatorVersion": "2.9.1"
}
