01:37:47.351 -> [6218] Trying baud rate 115200 ...
01:37:48.369 -> [7230] Modem responded at rate 115200
01:37:48.369 -> ***********************************************************
01:37:48.369 ->  You can now send AT commands
01:37:48.369 ->  Enter "AT" (without quotes), and you should see "OK"
01:37:48.369 ->  If it doesn't work, select "Both NL & CR" in Serial Monitor
01:37:48.369 -> ***********************************************************
01:37:48.369 -> 
01:37:48.369 -> +UMWI: 0,1
01:37:48.369 -> 
01:37:48.369 -> +UMWI: 0,2
01:37:48.369 -> 
01:37:48.369 -> +UMWI: 0,3
01:37:48.369 -> 
01:37:48.369 -> +UMWI: 0,4
01:40:30.571 -> AT+CMGF=1

01:40:30.571 -> OK
01:40:49.680 -> AT+CSCS="GSM"

01:40:49.680 -> OK
01:41:01.188 -> AT+CUSD=1

01:41:01.188 -> OK
01:41:12.822 -> AT+CUSD=1,"*101#",15

01:41:16.328 -> +CUSD: 1, "Bienvenue sur le portail Orange
01:41:16.328 -> 1: Orange et Moi
01:41:16.328 -> 2: Forfaits Voix et SMS
01:41:16.328 -> 3: Orange Internet
01:41:16.364 -> 4: Transfert Credit et Internet
01:41:16.364 -> 5: Orange Services
01:41:16.364 -> 6: Divertissement", 15
01:41:16.364 -> 
01:41:16.364 -> OK
01:41:33.189 -> AT+CUSD=1,"*101*3#",15

01:41:35.290 -> +CUSD: 1, "Bienvenu sur le menu SOS Mega d Orange.
01:41:35.290 -> Faites votre choix :
01:41:35.290 -> 1: Emprunt de 8 Mo
01:41:35.290 -> 2: Emprunt de 30 Mo
01:41:35.290 -> 3: Emprunt de 100 Mo
01:41:35.290 -> 4: Emprunt de 300 Mo
01:41:35.290 -> - - -
01:41:35.290 -> 00:menu principal", 15
01:41:35.290 -> 
01:41:35.290 -> OK
01:42:08.689 -> AT+CUSD=1,"*101*3*1#",15

01:42:10.893 -> +CUSD: 0, "cher client, votre balance n est pas autorise pour l emprunt.", 15
01:42:10.893 -> 
01:42:10.893 -> OK
01:48:14.672 -> AT+CUSD=1,"*101*4#",15

01:48:17.957 -> +CUSD: 1, "Faites votre choix:
01:48:17.957 -> 1: Transfert Credit
01:48:17.957 -> 2: Transfert Internet
01:48:17.957 -> 3: Vrifier le dernier transfert
01:48:17.957 -> 4: Changer le mot de passe
01:48:17.957 -> - - -
01:48:17.957 -> 00:menu principal
01:48:17.957 -> 0:menu precedent", 15
01:48:17.957 -> 
01:48:17.957 -> OK
01:49:19.867 -> 
01:49:19.867 -> ERROR
01:53:01.676 -> AT+CUSD=1,"*101*4*3#",15

01:53:05.142 -> +CUSD: 0, "** Nous corrigeons une erreur qui a interrompu le traitement de votre demande.
01:53:05.142 -> Veuillez recommencer ultrieurement.", 15
01:53:05.142 -> 
01:53:05.142 -> OK
01:53:18.179 -> AT+CUSD=1,"*101*4*3#",15

01:53:21.525 -> +CUSD: 0, "** Nous corrigeons une erreur qui a interrompu le traitement de votre demande.
01:53:21.525 -> Veuillez recommencer ultrieurement.", 15
01:53:21.525 -> 
01:53:21.525 -> OK
01:53:43.118 -> AT+CUSD=1,"*101*4*2#",15

01:53:46.322 -> +CUSD: 1, "Tapez votre mot de passe
01:53:46.322 -> - - -
01:53:46.322 -> 00:menu principal
01:53:46.322 -> 0:menu precedent", 15
01:53:46.322 -> 
01:53:46.322 -> OK
01:54:07.576 -> AT+CUSD=1,"*101*4*2*1849#",15

01:54:09.609 -> +CUSD: 0, "Cher client, votre mot de passe est incorrect. Veuillez appeler le 1777.", 15
01:54:09.609 -> 
01:54:09.609 -> OK
01:54:23.473 -> AT+CUSD=1,"*101*4*2*3478#",15

01:54:26.888 -> +CUSD: 1, "Tapez le numero:
01:54:26.888 -> - - -
01:54:26.888 -> 00:menu principal
01:54:26.888 -> 0:menu precedent", 15
01:54:26.888 -> 
01:54:26.888 -> OK
01:55:28.877 -> 
01:55:28.877 -> ERROR
01:55:55.219 -> AT+CUSD=1,"*101*4*2*3478*0896209027#",15

01:55:58.781 -> +CUSD: 1, "Entrer le montant en Mo
01:55:58.818 -> - - -
01:55:58.818 -> 00:menu principal
01:55:58.818 -> 0:menu precedent", 15
01:55:58.818 -> 
01:55:58.818 -> OK
01:56:29.173 -> AT+CUSD=1,"*101*4*2*3478*0896209027*5#",15

01:56:31.224 -> +CUSD: 0, "Cher client, votre mot de passe est incorrect. Veuillez appeler le 1777.", 15
01:56:31.224 -> 
01:56:31.224 -> OK
01:57:49.356 -> AT+CUSD=1,"*101*4*2*3478*0896209027*5#",15

01:57:53.899 -> +CUSD: 0, "Cher client, votre mot de passe est incorrect. Veuillez appeler le 1777.", 15
01:57:53.899 -> 
01:57:53.899 -> OK
01:59:11.396 -> AT+CUSD=1,"*101*4*2*1849*0896209027*5#",15

01:59:14.932 -> +CUSD: 0, "Cher client, votre mot de passe est incorrect. Veuillez appeler le 1777.", 15
01:59:14.969 -> 
01:59:14.969 -> OK
01:59:24.286 -> AT+CUSD=1,"*101*4*2*18493*0896209027*5#",15

01:59:27.613 -> +CUSD: 0, "Cher client, votre mot de passe est incorrect. Veuillez appeler le 1777.", 15
01:59:27.613 -> 
01:59:27.613 -> OK
02:00:20.804 -> AT+CUSD=1,"*101*1#",15

02:00:23.934 -> +CUSD: 1, "Faites votre choix: :
02:00:23.934 -> 1: Mon Compte
02:00:23.934 -> 2: SOS Credit
02:00:23.934 -> 3: SOS Internet
02:00:23.934 -> 4: Mon Offre
02:00:23.934 -> - - -
02:00:23.934 -> 00:menu principal
02:00:23.934 -> 0:menu precedent
", 15
02:00:23.934 -> 
02:00:23.934 -> OK
02:00:41.437 -> AT+CUSD=1,"*101*5#",15

02:00:43.506 -> +CUSD: 1, "Choix non disponible.
02:00:43.506 -> - - -
02:00:43.506 -> 00:menu principal
02:00:43.506 -> 0:menu precedent", 15
02:00:43.539 -> 
02:00:43.539 -> OK
02:02:16.949 -> AT+CUSD=1,"*101*1*1#",15

02:02:20.698 -> +CUSD: 1, "Faites votre choix : 
02:02:20.698 -> 1: Mon Numro
02:02:20.698 -> 2: Ma Balance
02:02:20.698 -> 3: Mes Forfaits et Bonus
02:02:20.698 -> - - -
02:02:20.698 -> 00:menu principal
02:02:20.733 -> 0:menu precedent", 15
02:02:20.733 -> 
02:02:20.733 -> OK
02:02:47.747 -> AT+CUSD=1,"*101*1*1*2#",15

02:02:49.583 -> +CUSD: 0, "Votre numero Orange est : 896209027", 15
02:02:49.583 -> 
02:02:49.583 -> OK
02:03:12.992 -> AT+CUSD=1,"*101*1*1*1#",15

02:03:16.542 -> +CUSD: 0, "Votre numero Orange est : 896209027", 15
02:03:16.542 -> 
02:03:16.542 -> OK
02:03:27.675 -> AT+CUSD=1,"*101*1*1*3#",15

02:03:31.332 -> +CUSD: 1, "Bienvenu sur le portail de consultation des soldes Forfaits et soldes Bonus.
02:03:31.365 -> Veuillez slectionner:
02:03:31.365 -> 
02:03:31.365 -> 1: Votre Solde Forfait
02:03:31.365 -> 2: Votre Solde Bonus
02:03:31.365 -> - - -
02:03:31.365 -> 00:menu principal", 15
02:03:31.365 -> 
02:03:31.365 -> OK
02:03:42.679 -> AT+CUSD=1,"*101*1*1*3*1#",15

02:03:44.516 -> +CUSD: 0, "Le client n a pas ce forfait", 15
02:03:44.516 -> 
02:03:44.516 -> OK
02:04:07.762 -> AT+CUSD=1,"*101*1*1*3*2#",15

02:04:11.279 -> +CUSD: 0, "Vous allez recevoir un SMS avec le resultat.", 15
02:04:11.279 -> 
02:04:11.279 -> OK
02:04:51.394 -> AT+CUSD=1,"*101*3#",15

02:04:56.936 -> +CUSD: 1, "Orange Internet
02:04:56.936 -> Choisissez votre gamme de forfaits:
02:04:56.936 -> 
02:04:56.936 -> 1:Forfaits EASYnet 10Mo a 980Mo
02:04:56.936 -> 2:Forfaits ACCROnet 2Go a 100Go
02:04:56.936 -> 3:Forfait HAPPYnet - nuit
02:04:56.936 -> 4:Forfaits SURPRISES
02:04:56.936 -> ...
02:04:56.936 -> 5:-->", 15
02:04:56.936 -> 
02:04:56.936 -> OK
02:05:14.568 -> AT+CUSD=1,"*101*3*4#",15

02:05:20.468 -> +CUSD: 0, "Felicitations, vous venez de souscrire au forfait  " Internet 25Mo (48h) - 30u" d Orange. Vous allez recevoir un SMS pour confirmer l activation de ce service.
", 15
02:05:20.504 -> 
02:05:20.504 -> OK
